<?xml version="1.0" encoding="UTF-8"?>
<testng-results skipped="0" failed="0" total="19" passed="19">
  <reporter-output>
  </reporter-output>
  <suite name="Command line suite" duration-ms="222" started-at="2018-01-20T11:52:28Z" finished-at="2018-01-20T11:52:28Z">
    <groups>
      <group name="negative">
        <method signature="BoyTest.testSpendSomeMoreMoney()[pri:0, instance:com.epam.gomel.homework.BoyTest@3d24753a]" name="testSpendSomeMoreMoney" class="com.epam.gomel.homework.BoyTest"/>
        <method signature="GirlTest.testSpendSomeMoreMoney()[pri:0, instance:com.epam.gomel.homework.GirlTest@7a0ac6e3]" name="testSpendSomeMoreMoney" class="com.epam.gomel.homework.GirlTest"/>
      </group> <!-- negative -->
      <group name="mood">
        <method signature="BoyTest.testExcellentMood()[pri:0, instance:com.epam.gomel.homework.BoyTest@3d24753a]" name="testExcellentMood" class="com.epam.gomel.homework.BoyTest"/>
        <method signature="BoyTest.testNeutralMood()[pri:0, instance:com.epam.gomel.homework.BoyTest@3d24753a]" name="testNeutralMood" class="com.epam.gomel.homework.BoyTest"/>
        <method signature="GirlTest.testExcellentMood()[pri:0, instance:com.epam.gomel.homework.GirlTest@7a0ac6e3]" name="testExcellentMood" class="com.epam.gomel.homework.GirlTest"/>
        <method signature="GirlTest.testGoodMood()[pri:0, instance:com.epam.gomel.homework.GirlTest@7a0ac6e3]" name="testGoodMood" class="com.epam.gomel.homework.GirlTest"/>
        <method signature="GirlTest.testIHateThemAlllmood()[pri:0, instance:com.epam.gomel.homework.GirlTest@7a0ac6e3]" name="testIHateThemAlllmood" class="com.epam.gomel.homework.GirlTest"/>
        <method signature="GirlTest.testNeutralmood()[pri:0, instance:com.epam.gomel.homework.GirlTest@7a0ac6e3]" name="testNeutralmood" class="com.epam.gomel.homework.GirlTest"/>
        <method signature="BoyTest.testHorribleMood()[pri:3, instance:com.epam.gomel.homework.BoyTest@3d24753a]" name="testHorribleMood" class="com.epam.gomel.homework.BoyTest"/>
        <method signature="BoyTest.testGoodMood()[pri:0, instance:com.epam.gomel.homework.BoyTest@3d24753a]" name="testGoodMood" class="com.epam.gomel.homework.BoyTest"/>
        <method signature="BoyTest.testBadMood()[pri:4, instance:com.epam.gomel.homework.BoyTest@3d24753a]" name="testBadMood" class="com.epam.gomel.homework.BoyTest"/>
      </group> <!-- mood -->
      <group name="spendMoney">
        <method signature="BoyTest.testSpendSomeMoreMoney()[pri:0, instance:com.epam.gomel.homework.BoyTest@3d24753a]" name="testSpendSomeMoreMoney" class="com.epam.gomel.homework.BoyTest"/>
        <method signature="GirlTest.testSpendSomeMoney()[pri:0, instance:com.epam.gomel.homework.GirlTest@7a0ac6e3]" name="testSpendSomeMoney" class="com.epam.gomel.homework.GirlTest"/>
        <method signature="GirlTest.testSpendSomeMoreMoney()[pri:0, instance:com.epam.gomel.homework.GirlTest@7a0ac6e3]" name="testSpendSomeMoreMoney" class="com.epam.gomel.homework.GirlTest"/>
        <method signature="BoyTest.testSpendSomeMoney()[pri:0, instance:com.epam.gomel.homework.BoyTest@3d24753a]" name="testSpendSomeMoney" class="com.epam.gomel.homework.BoyTest"/>
      </group> <!-- spendMoney -->
    </groups>
    <test name="Command line test" duration-ms="222" started-at="2018-01-20T11:52:28Z" finished-at="2018-01-20T11:52:28Z">
      <class name="com.epam.gomel.homework.GirlTest">
        <test-method status="PASS" signature="testGoodMood()[pri:0, instance:com.epam.gomel.homework.GirlTest@7a0ac6e3]" name="testGoodMood" duration-ms="0" started-at="2018-01-20T14:52:28Z" finished-at="2018-01-20T14:52:28Z">
          <reporter-output>
          </reporter-output>
        </test-method> <!-- testGoodMood -->
        <test-method status="PASS" signature="testExcellentMood()[pri:0, instance:com.epam.gomel.homework.GirlTest@7a0ac6e3]" name="testExcellentMood" duration-ms="0" started-at="2018-01-20T14:52:28Z" finished-at="2018-01-20T14:52:28Z">
          <reporter-output>
          </reporter-output>
        </test-method> <!-- testExcellentMood -->
        <test-method status="PASS" signature="testNeutralmood()[pri:0, instance:com.epam.gomel.homework.GirlTest@7a0ac6e3]" name="testNeutralmood" duration-ms="1" started-at="2018-01-20T14:52:28Z" finished-at="2018-01-20T14:52:28Z">
          <reporter-output>
          </reporter-output>
        </test-method> <!-- testNeutralmood -->
        <test-method status="PASS" signature="testIHateThemAlllmood()[pri:0, instance:com.epam.gomel.homework.GirlTest@7a0ac6e3]" name="testIHateThemAlllmood" duration-ms="0" started-at="2018-01-20T14:52:28Z" finished-at="2018-01-20T14:52:28Z">
          <reporter-output>
          </reporter-output>
        </test-method> <!-- testIHateThemAlllmood -->
        <test-method status="PASS" signature="testSpendSomeMoney()[pri:0, instance:com.epam.gomel.homework.GirlTest@7a0ac6e3]" name="testSpendSomeMoney" duration-ms="1" started-at="2018-01-20T14:52:28Z" finished-at="2018-01-20T14:52:28Z">
          <reporter-output>
          </reporter-output>
        </test-method> <!-- testSpendSomeMoney -->
        <test-method status="PASS" signature="testSpendSomeMoreMoney()[pri:0, instance:com.epam.gomel.homework.GirlTest@7a0ac6e3]" name="testSpendSomeMoreMoney" duration-ms="1" started-at="2018-01-20T14:52:28Z" finished-at="2018-01-20T14:52:28Z">
          <exception class="java.lang.RuntimeException">
            <message>
              <![CDATA[Not enough money! Requested amount is 1200001.0$ but you can't spend more then 1200000.0$]]>
            </message>
            <full-stacktrace>
              <![CDATA[java.lang.RuntimeException: Not enough money! Requested amount is 1200001.0$ but you can't spend more then 1200000.0$
	at com.epam.gomel.homework.Boy.spendSomeMoney(Boy.java:52)
	at com.epam.gomel.homework.Girl.spendBoyFriendMoney(Girl.java:52)
	at com.epam.gomel.homework.GirlTest.testSpendSomeMoreMoney(GirlTest.java:53)
	at sun.reflect.NativeMethodAccessorImpl.invoke0(Native Method)
	at sun.reflect.NativeMethodAccessorImpl.invoke(NativeMethodAccessorImpl.java:62)
	at sun.reflect.DelegatingMethodAccessorImpl.invoke(DelegatingMethodAccessorImpl.java:43)
	at java.lang.reflect.Method.invoke(Method.java:498)
	at org.testng.internal.MethodInvocationHelper.invokeMethod(MethodInvocationHelper.java:85)
	at org.testng.internal.Invoker.invokeMethod(Invoker.java:639)
	at org.testng.internal.Invoker.invokeTestMethod(Invoker.java:816)
	at org.testng.internal.Invoker.invokeTestMethods(Invoker.java:1124)
	at org.testng.internal.TestMethodWorker.invokeTestMethods(TestMethodWorker.java:125)
	at org.testng.internal.TestMethodWorker.run(TestMethodWorker.java:108)
	at org.testng.TestRunner.privateRun(TestRunner.java:774)
	at org.testng.TestRunner.run(TestRunner.java:624)
	at org.testng.SuiteRunner.runTest(SuiteRunner.java:359)
	at org.testng.SuiteRunner.runSequentially(SuiteRunner.java:354)
	at org.testng.SuiteRunner.privateRun(SuiteRunner.java:312)
	at org.testng.SuiteRunner.run(SuiteRunner.java:261)
	at org.testng.SuiteRunnerWorker.runSuite(SuiteRunnerWorker.java:52)
	at org.testng.SuiteRunnerWorker.run(SuiteRunnerWorker.java:86)
	at org.testng.TestNG.runSuitesSequentially(TestNG.java:1215)
	at org.testng.TestNG.runSuitesLocally(TestNG.java:1140)
	at org.testng.TestNG.run(TestNG.java:1048)
	at org.apache.maven.surefire.testng.TestNGExecutor.run(TestNGExecutor.java:77)
	at org.apache.maven.surefire.testng.TestNGDirectoryTestSuite.executeMulti(TestNGDirectoryTestSuite.java:159)
	at org.apache.maven.surefire.testng.TestNGDirectoryTestSuite.execute(TestNGDirectoryTestSuite.java:99)
	at org.apache.maven.surefire.testng.TestNGProvider.invoke(TestNGProvider.java:106)
	at sun.reflect.NativeMethodAccessorImpl.invoke0(Native Method)
	at sun.reflect.NativeMethodAccessorImpl.invoke(NativeMethodAccessorImpl.java:62)
	at sun.reflect.DelegatingMethodAccessorImpl.invoke(DelegatingMethodAccessorImpl.java:43)
	at java.lang.reflect.Method.invoke(Method.java:498)
	at org.apache.maven.surefire.util.ReflectionUtils.invokeMethodWithArray(ReflectionUtils.java:189)
	at org.apache.maven.surefire.booter.ProviderFactory$ProviderProxy.invoke(ProviderFactory.java:165)
	at org.apache.maven.surefire.booter.ProviderFactory.invokeProvider(ProviderFactory.java:85)
	at org.apache.maven.surefire.booter.ForkedBooter.runSuitesInProcess(ForkedBooter.java:115)
	at org.apache.maven.surefire.booter.ForkedBooter.main(ForkedBooter.java:75)
]]>
            </full-stacktrace>
          </exception> <!-- java.lang.RuntimeException -->
          <reporter-output>
          </reporter-output>
        </test-method> <!-- testSpendSomeMoreMoney -->
      </class> <!-- com.epam.gomel.homework.GirlTest -->
      <class name="com.epam.gomel.homework.BoyTest">
        <test-method status="PASS" signature="testExcellentMood()[pri:0, instance:com.epam.gomel.homework.BoyTest@3d24753a]" name="testExcellentMood" duration-ms="12" started-at="2018-01-20T14:52:28Z" finished-at="2018-01-20T14:52:28Z">
          <reporter-output>
          </reporter-output>
        </test-method> <!-- testExcellentMood -->
        <test-method status="PASS" signature="testSpendSomeMoreMoney()[pri:0, instance:com.epam.gomel.homework.BoyTest@3d24753a]" name="testSpendSomeMoreMoney" duration-ms="12" started-at="2018-01-20T14:52:28Z" finished-at="2018-01-20T14:52:28Z">
          <exception class="java.lang.RuntimeException">
            <message>
              <![CDATA[Not enough money! Requested amount is 11.0$ but you can't spend more then 10.0$]]>
            </message>
            <full-stacktrace>
              <![CDATA[java.lang.RuntimeException: Not enough money! Requested amount is 11.0$ but you can't spend more then 10.0$
	at com.epam.gomel.homework.Boy.spendSomeMoney(Boy.java:52)
	at com.epam.gomel.homework.BoyTest.testSpendSomeMoreMoney(BoyTest.java:61)
	at sun.reflect.NativeMethodAccessorImpl.invoke0(Native Method)
	at sun.reflect.NativeMethodAccessorImpl.invoke(NativeMethodAccessorImpl.java:62)
	at sun.reflect.DelegatingMethodAccessorImpl.invoke(DelegatingMethodAccessorImpl.java:43)
	at java.lang.reflect.Method.invoke(Method.java:498)
	at org.testng.internal.MethodInvocationHelper.invokeMethod(MethodInvocationHelper.java:85)
	at org.testng.internal.Invoker.invokeMethod(Invoker.java:639)
	at org.testng.internal.Invoker.invokeTestMethod(Invoker.java:816)
	at org.testng.internal.Invoker.invokeTestMethods(Invoker.java:1124)
	at org.testng.internal.TestMethodWorker.invokeTestMethods(TestMethodWorker.java:125)
	at org.testng.internal.TestMethodWorker.run(TestMethodWorker.java:108)
	at org.testng.TestRunner.privateRun(TestRunner.java:774)
	at org.testng.TestRunner.run(TestRunner.java:624)
	at org.testng.SuiteRunner.runTest(SuiteRunner.java:359)
	at org.testng.SuiteRunner.runSequentially(SuiteRunner.java:354)
	at org.testng.SuiteRunner.privateRun(SuiteRunner.java:312)
	at org.testng.SuiteRunner.run(SuiteRunner.java:261)
	at org.testng.SuiteRunnerWorker.runSuite(SuiteRunnerWorker.java:52)
	at org.testng.SuiteRunnerWorker.run(SuiteRunnerWorker.java:86)
	at org.testng.TestNG.runSuitesSequentially(TestNG.java:1215)
	at org.testng.TestNG.runSuitesLocally(TestNG.java:1140)
	at org.testng.TestNG.run(TestNG.java:1048)
	at org.apache.maven.surefire.testng.TestNGExecutor.run(TestNGExecutor.java:77)
	at org.apache.maven.surefire.testng.TestNGDirectoryTestSuite.executeMulti(TestNGDirectoryTestSuite.java:159)
	at org.apache.maven.surefire.testng.TestNGDirectoryTestSuite.execute(TestNGDirectoryTestSuite.java:99)
	at org.apache.maven.surefire.testng.TestNGProvider.invoke(TestNGProvider.java:106)
	at sun.reflect.NativeMethodAccessorImpl.invoke0(Native Method)
	at sun.reflect.NativeMethodAccessorImpl.invoke(NativeMethodAccessorImpl.java:62)
	at sun.reflect.DelegatingMethodAccessorImpl.invoke(DelegatingMethodAccessorImpl.java:43)
	at java.lang.reflect.Method.invoke(Method.java:498)
	at org.apache.maven.surefire.util.ReflectionUtils.invokeMethodWithArray(ReflectionUtils.java:189)
	at org.apache.maven.surefire.booter.ProviderFactory$ProviderProxy.invoke(ProviderFactory.java:165)
	at org.apache.maven.surefire.booter.ProviderFactory.invokeProvider(ProviderFactory.java:85)
	at org.apache.maven.surefire.booter.ForkedBooter.runSuitesInProcess(ForkedBooter.java:115)
	at org.apache.maven.surefire.booter.ForkedBooter.main(ForkedBooter.java:75)
]]>
            </full-stacktrace>
          </exception> <!-- java.lang.RuntimeException -->
          <reporter-output>
          </reporter-output>
        </test-method> <!-- testSpendSomeMoreMoney -->
        <test-method status="PASS" signature="testNeutralMood()[pri:0, instance:com.epam.gomel.homework.BoyTest@3d24753a]" name="testNeutralMood" duration-ms="0" started-at="2018-01-20T14:52:28Z" finished-at="2018-01-20T14:52:28Z">
          <reporter-output>
          </reporter-output>
        </test-method> <!-- testNeutralMood -->
        <test-method status="PASS" signature="testGoodMood()[pri:0, instance:com.epam.gomel.homework.BoyTest@3d24753a]" name="testGoodMood" duration-ms="0" started-at="2018-01-20T14:52:28Z" finished-at="2018-01-20T14:52:28Z">
          <reporter-output>
          </reporter-output>
        </test-method> <!-- testGoodMood -->
        <test-method status="PASS" signature="testHorribleMood()[pri:3, instance:com.epam.gomel.homework.BoyTest@3d24753a]" name="testHorribleMood" duration-ms="1" started-at="2018-01-20T14:52:28Z" finished-at="2018-01-20T14:52:28Z">
          <reporter-output>
          </reporter-output>
        </test-method> <!-- testHorribleMood -->
        <test-method status="PASS" signature="testBadMood()[pri:4, instance:com.epam.gomel.homework.BoyTest@3d24753a]" name="testBadMood" duration-ms="0" started-at="2018-01-20T14:52:28Z" finished-at="2018-01-20T14:52:28Z">
          <reporter-output>
          </reporter-output>
        </test-method> <!-- testBadMood -->
        <test-method status="PASS" signature="testSpendSomeMoney()[pri:0, instance:com.epam.gomel.homework.BoyTest@3d24753a]" name="testSpendSomeMoney" duration-ms="0" depends-on-groups="negative" started-at="2018-01-20T14:52:28Z" finished-at="2018-01-20T14:52:28Z">
          <reporter-output>
          </reporter-output>
        </test-method> <!-- testSpendSomeMoney -->
      </class> <!-- com.epam.gomel.homework.BoyTest -->
      <class name="com.epam.gomel.homework.BoyHamcrestTest">
        <test-method status="PASS" signature="testMonth(com.epam.gomel.homework.Month, double)[pri:0, instance:com.epam.gomel.homework.BoyHamcrestTest@19dfb72a]" name="testMonth" duration-ms="4" started-at="2018-01-20T14:52:28Z" data-provider="user data" finished-at="2018-01-20T14:52:28Z">
          <params>
            <param index="0">
              <value>
                <![CDATA[JANUARY]]>
              </value>
            </param>
            <param index="1">
              <value>
                <![CDATA[100000]]>
              </value>
            </param>
          </params>
          <reporter-output>
          </reporter-output>
        </test-method> <!-- testMonth -->
        <test-method status="PASS" signature="testMonth(com.epam.gomel.homework.Month, double)[pri:0, instance:com.epam.gomel.homework.BoyHamcrestTest@19dfb72a]" name="testMonth" duration-ms="0" started-at="2018-01-20T14:52:28Z" data-provider="user data" finished-at="2018-01-20T14:52:28Z">
          <params>
            <param index="0">
              <value>
                <![CDATA[JULY]]>
              </value>
            </param>
            <param index="1">
              <value>
                <![CDATA[1]]>
              </value>
            </param>
          </params>
          <reporter-output>
          </reporter-output>
        </test-method> <!-- testMonth -->
        <test-method status="PASS" signature="testGirlNotNull(com.epam.gomel.homework.Month, double)[pri:0, instance:com.epam.gomel.homework.BoyHamcrestTest@19dfb72a]" name="testGirlNotNull" duration-ms="4" started-at="2018-01-20T14:52:28Z" description="test boy girlFriend" data-provider="user data" finished-at="2018-01-20T14:52:28Z">
          <params>
            <param index="0">
              <value>
                <![CDATA[JANUARY]]>
              </value>
            </param>
            <param index="1">
              <value>
                <![CDATA[100000]]>
              </value>
            </param>
          </params>
          <reporter-output>
          </reporter-output>
        </test-method> <!-- testGirlNotNull -->
        <test-method status="PASS" signature="testGirlNotNull(com.epam.gomel.homework.Month, double)[pri:0, instance:com.epam.gomel.homework.BoyHamcrestTest@19dfb72a]" name="testGirlNotNull" duration-ms="0" started-at="2018-01-20T14:52:28Z" description="test boy girlFriend" data-provider="user data" finished-at="2018-01-20T14:52:28Z">
          <params>
            <param index="0">
              <value>
                <![CDATA[JULY]]>
              </value>
            </param>
            <param index="1">
              <value>
                <![CDATA[1]]>
              </value>
            </param>
          </params>
          <reporter-output>
          </reporter-output>
        </test-method> <!-- testGirlNotNull -->
      </class> <!-- com.epam.gomel.homework.BoyHamcrestTest -->
      <class name="com.epam.gomel.homework.GirlMockitoTest">
        <test-method status="PASS" signature="testGetBoyMoney()[pri:0, instance:com.epam.gomel.homework.GirlMockitoTest@71be98f5]" name="testGetBoyMoney" duration-ms="165" started-at="2018-01-20T14:52:28Z" finished-at="2018-01-20T14:52:28Z">
          <reporter-output>
          </reporter-output>
        </test-method> <!-- testGetBoyMoney -->
        <test-method status="PASS" signature="testSpendBoyFriendMoney()[pri:0, instance:com.epam.gomel.homework.GirlMockitoTest@71be98f5]" name="testSpendBoyFriendMoney" duration-ms="1" started-at="2018-01-20T14:52:28Z" finished-at="2018-01-20T14:52:28Z">
          <reporter-output>
          </reporter-output>
        </test-method> <!-- testSpendBoyFriendMoney -->
      </class> <!-- com.epam.gomel.homework.GirlMockitoTest -->
    </test> <!-- Command line test -->
  </suite> <!-- Command line suite -->
</testng-results>
